Fric et al. Re-analysis Code
…
*

Compare statistical results to Fric et al.

This code uses model outputs and compares them to the results of the Fric et al. analysis. It outputs Figure 2.

##Results and visualizations

fric.results.lat<-read_excel("data/Fric_results.xlsx", sheet="models")
na.omit(read_excel("fric_supplements/Supplementary Table 2_final.xlsx", sheet="~latitude", range="A3:A113"))

## # A tibble: 105 x 1
##    Species                                     
##    <chr>                                       
##  1 Carterocephalus palaemon (Pallas, 1771)     
##  2 Hesperia comma (Linnaeus, 1758)             
##  3 Thorybes pylades (Scudder, 1870)            
##  4 Erynnis icelus (Scudder & Burgess, 1870)    
##  5 Erynnis persius (Scudder, 1863)             
##  6 Pyrgus centaureae (Rambur, 1840)            
##  7 Amblyscirtes vialis (W.H. Edwards, 1862)    
##  8 Parnassius smintheus Doubleday, 1847        
##  9 Papilio machaon Linnaeus, 1758              
## 10 Papilio canadensis Rothschild & Jordan, 1906
## # ... with 95 more rows
…
